{
    "api": {
        "baseUrl": "https://fctest.fssai.gov.in/gateway",
        "fsmBaseUrl": "https://mitra.fssai.gov.in"
    },
    "captchaByPass": false,
    "lastdateupate": {
        "date": "19/1/2020"
    },
    "allowedMaxFileSize": 3072.0,
    "FoSCoRISLastUpdatedOn": {
        "date": "15/03/2020"
    },
    "isFSCTrainingVersion": false,
    "algoKey": {
        "keyName": "$$CHALLENGE"
    },
    "paymentByPass": {
        "byPassFlag": false,
        "paidUser": [
            "54508922710417345345"
        ]
    },
    "paths": {
        "imagesRoot": "/assets/images/",
        "userImageFolder": "/assets/images/users/"
    },
    "localization": {
        "languages": [
            {
                "code": "hr",
                "name": "HR",
                "culture": "hr-HR"
            },
            {
                "code": "en",
                "name": "EN",
                "culture": "en-EN"
            }
        ],
        "defaultLanguage": "en"
    },
    "notifications": {
        "options": {
            "timeOut": 20000,
            "showProgressBar": true,
            "pauseOnHover": true,
            "position": [
                "top",
                "right"
            ],
            "theClass": "sy-notification",
            "clickIconToClose": true
        },
        "unauthorizedEndpoints": [
            "/"
        ],
        "notFoundEndpoints": [
            "/"
        ]
    },
    "debugging": true
}